Place,Name,Sex,Event,Division,WeightClassKg,Equipment,BirthYear,Team,State,BodyweightKg,Squat1Kg,Squat2Kg,Squat3Kg,Best3SquatKg,Bench1Kg,Bench2Kg,Bench3Kg,Best3BenchKg,Deadlift1Kg,Deadlift2Kg,Deadlift3Kg,Best3DeadliftKg,TotalKg,Age,BirthDate
1,Kay Lucas,F,B,FR-M2,52,Raw,1965,TruBorn Strong,GA,51.65,,,,,45,47.5,-50,47.5,,,,,47.5,,
1,Susan Frazier,F,B,FR-M2,82.5,Raw,1970,Team BAM,GA,76.35,,,,,47.5,50,52.5,52.5,,,,,52.5,,
1,Isabelle Marosek,F,B,FR-O,75,Raw,2000,TruBorn Strong,GA,74.8,,,,,105,-112.5,-112.5,105,,,,,105,,
1,Tina Harper,F,B,FR-O,100+,Raw,1987,Elite Iron,GA,107.3,,,,,35,50,65,65,,,,,65,,
1,Marissa Weidner,F,B,FR-O,67.5,Raw,1995,Elite Iron,GA,67.45,,,,,97.5,102.5,-110,102.5,,,,,102.5,,
1,Steven P Phillips,M,B,M-M4,110,Single-ply,1950,,GA,109.4,,,,,130,-135,-135,130,,,,,130,,
1,Justin Odom #1,M,B,M-O,140,Single-ply,1995,Team BAM,GA,128.55,,,,,185,-187.5,,185,,,,,185,,
1,Austin Roach Delk,M,B,MR-Jr,100,Raw,2002,Elite Iron,GA,98.95,,,,,-120,120,-127.5,120,,,,,120,,
1,Jackson Agin,M,B,MR-Jr,82.5,Raw,2000,Elite Iron,GA,80.05,,,,,120,125,130,130,,,,,130,,
1,Leonard Brooks,M,B,MR-M1,125,Raw,1974,Elite Iron,GA,123.7,,,,,147.5,157.5,165,165,,,,,165,,
1,Keith Jones,M,B,MR-M2,110,Raw,1972,,GA,106.8,,,,,172.5,-182.5,-182.5,172.5,,,,,172.5,,
1,Darrell Allen,M,B,MR-M3,100,Raw,1961,,GA,92.3,,,,,145,155,-157.5,155,,,,,155,,
1,Killian Prince,M,B,MR-O,60,Raw,2008,,GA,58.95,,,,,75,80,82.5,82.5,,,,,82.5,,
1,Gregory Luu,M,B,MR-O,75,Raw,1992,Team Luu,GA,74.95,,,,,127.5,135,-137.5,135,,,,,135,,
1,Henry Kushner,M,B,MR-O,90,Raw,1991,Elite Iron,GA,89.3,,,,,127.5,135,137.5,137.5,,,,,137.5,,
1,Quentin White,M,B,MR-O,100,Raw,1993,TruBorn Strong,GA,99.7,,,,,182.5,190,-195,190,,,,,190,,
2,Pete Perrin,M,B,MR-O,100,Raw,1996,Elite Iron,GA,97.5,,,,,125,132.5,-135,132.5,,,,,132.5,,
1,Carlton Beasley,M,B,MR-O,125,Raw,1997,Elite Iron,GA,122.4,,,,,160,165,167.5,167.5,,,,,167.5,,
1,Michael Ilardi,M,B,MR-O,67.5,Raw,1996,Team Luu,GA,66.85,,,,,122.5,127.5,-132.5,127.5,,,,,127.5,,
1,Killian Prince,M,B,MR-T1,60,Raw,2008,,GA,58.95,,,,,75,80,82.5,82.5,,,,,82.5,,
1,Robby Lee,M,B,MR-T1,82.5,Raw,2007,,GA,80.8,,,,,-112.5,112.5,117.5,117.5,,,,,117.5,,
1,Arden Bunch,M,B,MR-T2,100,Raw,2006,,GA,96.9,,,,,97.5,102.5,105,105,,,,,105,,
1,Marissa Weidner,F,D,FR-O,67.5,Raw,1995,Elite Iron,GA,67.45,,,,,,,,,160,165,-172.5,165,165,,
1,Troy Williams #1,M,D,MR-M1,140+,Raw,1978,,GA,177.9,,,,,,,,,-235,-257.5,257.5,257.5,257.5,,
1,James Huang,M,D,MR-O,75,Raw,2004,Team Luu,GA,72.15,,,,,,,,,-177.5,187.5,205,205,205,,
1,Arden Bunch,M,D,MR-T2,100,Raw,2006,,GA,96.9,,,,,,,,,180,200,205,205,205,,
G,Delilah Drummond,F,SBD,FR-G,60,Raw,2000,,GA,59,72.5,77.5,82.5,82.5,42.5,45,-50,45,100,105,112.5,112.5,240,,
1,Ashton Glover,F,SBD,FR-Jr,56,Raw,2002,Pioneered Strength,GA,55.6,60,65,70,70,35,37.5,-40,37.5,67.5,72.5,77.5,77.5,185,,
DQ,Ho Khoi Nguyen Le,F,SBD,FR-Jr,56,Raw,1999,Fueled Mafia,GA,56,72.5,80,-87.5,80,-62.5,-62.5,-62.5,,-130,-130,-130,,,,
1,Qingyi Lou,F,SBD,FR-Jr,60,Raw,2000,Georgia Tech Barbell Club,GA,59.2,120,125,127.5,127.5,65,70,-72.5,70,132.5,137.5,-140,137.5,335,,
2,Taylor Hunley,F,SBD,FR-Jr,60,Raw,2002,Eagle Power,GA,57.7,90,-97.5,97.5,97.5,55,60,-62.5,60,145,155,-165,155,312.5,,
3,Lucy Cao,F,SBD,FR-Jr,60,Raw,2003,,GA,56.35,97.5,105,-112.5,105,60,-65,65,65,120,130,-135,130,300,,
4,Payton Kane,F,SBD,FR-Jr,60,Raw,2002,Eagle Power,GA,59.05,87.5,97.5,-102.5,97.5,52.5,55,57.5,57.5,97.5,105,107.5,107.5,262.5,,
1,Renee Sahli,F,SBD,FR-Jr,75,Raw,1999,,GA,74.35,160,170,175,175,80,85,-87.5,85,185,195,-205,195,455,,
2,Isabelle Marosek,F,SBD,FR-Jr,75,Raw,2000,TruBorn Strong,GA,74.8,150,160,170,170,105,-112.5,-112.5,105,160,170,-182.5,170,445,,
3,Madison Procyk,F,SBD,FR-Jr,75,Raw,2002,Eagle Power,GA,73.2,120,127.5,-135,127.5,80,85,90,90,125,132.5,142.5,142.5,360,,
4,Tiani Johnson,F,SBD,FR-Jr,75,Raw,2001,,GA,74.55,100,110,117.5,117.5,57.5,67.5,70,70,125,132.5,-142.5,132.5,320,,
1,Megan Blanchard,F,SBD,FR-Jr,100,Raw,2003,Eagle Power,GA,97.5,135,142.5,147.5,147.5,62.5,-65,65,65,145,157.5,165,165,377.5,,
1,Amanda Carroll,F,SBD,FR-Jr,100+,Raw,2000,,GA,116,160,170,182.5,182.5,67.5,75,-77.5,75,140,152.5,160,160,417.5,,
2,Sarah Sheely,F,SBD,FR-Jr,100+,Raw,2001,TruBorn Strong,GA,129.3,150,-155,-162.5,150,77.5,82.5,-85,82.5,160,172.5,-182.5,172.5,405,,
1,Lilia Bingham,F,SBD,FR-Jr,67.5,Raw,2002,Georgia Tech Barbell Club,GA,65.75,110,122.5,130,130,65,70,-75,70,132.5,142.5,152.5,152.5,352.5,,
2,Elizabeth Buchanan,F,SBD,FR-Jr,67.5,Raw,2000,Eagle Power,GA,62.85,107.5,117.5,-127.5,117.5,65,70,-75,70,107.5,115,120,120,307.5,,
3,Lindsay Nyquist,F,SBD,FR-Jr,67.5,Raw,2001,,GA,66.9,-97.5,97.5,-102.5,97.5,60,62.5,65,65,115,120,-125,120,282.5,,
4,Erin Howell,F,SBD,FR-Jr,67.5,Raw,2002,,GA,66.3,97.5,102.5,-110,102.5,42.5,45,-47.5,45,100,112.5,122.5,122.5,270,,
5,Emma Jones #3,F,SBD,FR-Jr,67.5,Raw,2000,Georgia Tech Barbell Club,GA,64.65,87.5,92.5,97.5,97.5,45,47.5,50,50,105,115,120,120,267.5,,
6,MaryAngela Kottis,F,SBD,FR-Jr,67.5,Raw,2000,TruBorn Strong,GA,66.95,80,82.5,,82.5,50,52.5,55,55,100,110,115,115,252.5,,
1,Isabelle Boughadou,F,SBD,FR-Jr,82.5,Raw,1999,TruBorn Strong,GA,75.1,120,130,137.5,137.5,85,90,92.5,92.5,160,172.5,180,180,410,,
2,Sara Faith Griffin,F,SBD,FR-Jr,82.5,Raw,2001,,GA,75.45,110,120,132.5,132.5,62.5,65,-72.5,65,122.5,135,145,145,342.5,,
1,Stephanie Correa,F,SBD,FR-M1,56,Raw,1977,,GA,55.1,102.5,-110,-110,102.5,45,50,-55,50,112.5,120,127.5,127.5,280,,
1,Trish Footit,F,SBD,FR-M1,75,Raw,1979,,GA,71.35,130,140,-150,140,85,92.5,-95,92.5,160,170,177.5,177.5,410,,
2,Kelley Lammey,F,SBD,FR-M1,75,Raw,1982,,GA,74.45,97.5,105,-112.5,105,57.5,60,-62.5,60,107.5,117.5,-127.5,117.5,282.5,,
3,Katy Cassel,F,SBD,FR-M1,75,Raw,1981,TruBorn Strong,GA,74.65,80,-90,-90,80,52.5,57.5,-62.5,57.5,100,110,117.5,117.5,255,,
1,Shericia Hodge,F,SBD,FR-M1,100+,Raw,1977,,GA,115.2,-112.5,112.5,122.5,122.5,60,65,-70,65,112.5,120,125,125,312.5,,
2,Denise Davis,F,SBD,FR-M1,100+,Raw,1974,,GA,101.2,102.5,107.5,115,115,57.5,65,-72.5,65,105,112.5,120,120,300,,
1,Dena Mellick,F,SBD,FR-M1,67.5,Raw,1981,,GA,63.6,90,95,-102.5,95,42.5,47.5,50,50,115,122.5,130,130,275,,
1,Susan Kintz,F,SBD,FR-M2,52,Raw,1964,TruBorn Strong,GA,50.7,65,70,72.5,72.5,40,42.5,45,45,90,95,100,100,217.5,,
2,Kay Lucas,F,SBD,FR-M2,52,Raw,1965,TruBorn Strong,GA,51.65,75,-77.5,-77.5,75,45,47.5,-50,47.5,75,82.5,-97.5,82.5,205,,
1,Susan Butler,F,SBD,FR-M2,56,Raw,1964,Fueled Mafia,GA,55.55,-72.5,72.5,-80,72.5,47.5,50,-52.5,50,102.5,110,115,115,237.5,,
1,Suzanne Turner,F,SBD,FR-M2,60,Raw,1972,,GA,59.2,80,85,87.5,87.5,-55,55,57.5,57.5,110,117.5,120,120,265,,
1,Katherine McClure,F,SBD,FR-M2,90,Raw,1973,TruBorn Strong,GA,88.1,80,-85,90,90,60,65,-67.5,65,110,115,120,120,275,,
1,Melissa Rose,F,SBD,FR-M2,100+,Raw,1971,TruBorn Strong,GA,101.8,-120,120,127.5,127.5,55,60,65,65,132.5,145,-155,145,337.5,,
2,Liliana Conner,F,SBD,FR-M2,100+,Raw,1972,,GA,105.65,105,112.5,-120,112.5,62.5,-70,-72.5,62.5,132.5,-147.5,-165,132.5,307.5,,
3,Magdalena Hernandez,F,SBD,FR-M2,100+,Raw,1968,TruBorn Strong,GA,108.95,95,102.5,-110,102.5,57.5,-62.5,65,65,120,132.5,140,140,307.5,,
4,Falami Devoe,F,SBD,FR-M2,100+,Raw,1969,TruBorn Strong,GA,101.65,-87.5,92.5,100,100,50,52.5,55,55,137.5,-142.5,-142.5,137.5,292.5,,
1,Susan Frazier,F,SBD,FR-M2,82.5,Raw,1970,Team BAM,GA,76.35,72.5,-77.5,77.5,77.5,47.5,50,52.5,52.5,110,115,120,120,250,,
1,Janice Bradley,F,SBD,FR-M3,60,Raw,1963,TruBorn Strong,GA,58.8,70,72.5,75,75,35,37.5,-40,37.5,107.5,115,120,120,232.5,,
1,Ann Russell,F,SBD,FR-M3,75,Raw,1954,,GA,68.5,77.5,82.5,85,85,50,52.5,55,55,110,117.5,125,125,265,,
1,Ann Peden,F,SBD,FR-M3,67.5,Raw,1960,,GA,66.2,52.5,-60,60,60,35,40,-42.5,40,85,92.5,-100,92.5,192.5,,
1,Gwen Cook,F,SBD,FR-M3,82.5,Raw,1961,,GA,78.85,67.5,72.5,77.5,77.5,37.5,42.5,-50,42.5,90,100,-110,100,220,,
1,Renee Sahli,F,SBD,FR-MO,75,Raw,1999,,GA,74.35,160,170,175,175,80,85,-87.5,85,185,195,-205,195,455,,
1,Megan Painter,F,SBD,FR-O,52,Raw,2003,,GA,51.85,95,-102.5,-102.5,95,50,-55,55,55,100,107.5,112.5,112.5,262.5,,
2,Gini Peyton,F,SBD,FR-O,52,Raw,1996,TruBorn Strong,GA,50.05,-72.5,72.5,77.5,77.5,40,42.5,-45,42.5,105,110,115,115,235,,
3,Susan Kintz,F,SBD,FR-O,52,Raw,1964,TruBorn Strong,GA,50.7,65,70,72.5,72.5,40,42.5,45,45,90,95,100,100,217.5,,
1,Susan Butler,F,SBD,FR-O,56,Raw,1964,Fueled Mafia,GA,55.55,-72.5,72.5,-80,72.5,47.5,50,-52.5,50,102.5,110,115,115,237.5,,
DQ,Ho Khoi Nguyen Le,F,SBD,FR-O,56,Raw,1999,Fueled Mafia,GA,56,72.5,80,-87.5,80,-62.5,-62.5,-62.5,,-130,-130,-130,,,,
1,Katie Foote,F,SBD,FR-O,60,Raw,1998,,GA,57.75,102.5,110,-120,110,-60,60,62.5,62.5,147.5,155,-162.5,155,327.5,,
2,Ashley Blankenship,F,SBD,FR-O,60,Raw,1994,,GA,57.5,85,87.5,97.5,97.5,52.5,60,-62.5,60,102.5,107.5,-112.5,107.5,265,,
3,Erica Fogleman,F,SBD,FR-O,60,Raw,1985,,GA,57.2,70,77.5,80,80,45,50,-55,50,92.5,102.5,115,115,245,,
4,Janice Bradley,F,SBD,FR-O,60,Raw,1963,TruBorn Strong,GA,58.8,70,72.5,75,75,35,37.5,-40,37.5,107.5,115,120,120,232.5,,
5,Min Hsuan Lin,F,SBD,FR-O,60,Raw,1998,Team Luu,GA,57.05,75,80,-87.5,80,35,-40,45,45,82.5,95,102.5,102.5,227.5,,
1,Renee Sahli,F,SBD,FR-O,75,Raw,1999,,GA,74.35,160,170,175,175,80,85,-87.5,85,185,195,-205,195,455,,
2,Isabelle Marosek,F,SBD,FR-O,75,Raw,2000,TruBorn Strong,GA,74.8,150,160,170,170,105,-112.5,-112.5,105,160,170,-182.5,170,445,,
3,Allyson Terry,F,SBD,FR-O,75,Raw,1994,,GA,74.9,-155,155,-165,155,85,90,-95,90,182.5,190,195,195,440,,
4,Tinisha Carter,F,SBD,FR-O,75,Raw,1990,TruBorn Strong,GA,73.55,130,150,160,160,52.5,60,-70,60,120,150,165,165,385,,
5,Ashley Reese,F,SBD,FR-O,75,Raw,1996,,GA,74.1,142.5,155,-167.5,155,62.5,72.5,77.5,77.5,150,-167.5,-167.5,150,382.5,,
6,Jenna Reese,F,SBD,FR-O,75,Raw,2004,Kennesaw Barbell,GA,73.4,97.5,102.5,-110,102.5,52.5,57.5,-60,57.5,110,120,127.5,127.5,287.5,,
7,Kelley Lammey,F,SBD,FR-O,75,Raw,1982,,GA,74.45,97.5,105,-112.5,105,57.5,60,-62.5,60,107.5,117.5,-127.5,117.5,282.5,,
8,Jacqueline Tracy,F,SBD,FR-O,75,Raw,1983,TruBorn Strong,GA,74.2,70,75,77.5,77.5,42.5,47.5,-50,47.5,102.5,112.5,117.5,117.5,242.5,,
1,Alissa Orr,F,SBD,FR-O,90,Raw,1988,,GA,86.05,130,140,147.5,147.5,82.5,87.5,-92.5,87.5,165,175,182.5,182.5,417.5,,
2,Jasmine Mack,F,SBD,FR-O,90,Raw,1991,,GA,87.45,127.5,135,145,145,72.5,77.5,-82.5,77.5,130,145,155,155,377.5,,
3,Shelby Collins,F,SBD,FR-O,90,Raw,1989,Fueled Mafia,GA,89.85,100,107.5,112.5,112.5,55,60,-62.5,60,132.5,137.5,142.5,142.5,315,,
1,Layla Abdullatif,F,SBD,FR-O,100,Raw,1997,,GA,97.45,115,-122.5,122.5,122.5,67.5,72.5,75,75,140,150,155,155,352.5,,
2,Catalina Duran,F,SBD,FR-O,100,Raw,1989,,GA,98.8,105,115,120,120,65,-70,-70,65,127.5,137.5,147.5,147.5,332.5,,
1,Amanda Carroll,F,SBD,FR-O,100+,Raw,2000,,GA,116,160,170,182.5,182.5,67.5,75,-77.5,75,140,152.5,160,160,417.5,,
2,Sarah Sheely,F,SBD,FR-O,100+,Raw,2001,TruBorn Strong,GA,129.3,150,-155,-162.5,150,77.5,82.5,-85,82.5,160,172.5,-182.5,172.5,405,,
3,Falami Devoe,F,SBD,FR-O,100+,Raw,1969,TruBorn Strong,GA,101.65,-87.5,92.5,100,100,50,52.5,55,55,137.5,-142.5,-142.5,137.5,292.5,,
4,Tina Harper,F,SBD,FR-O,100+,Raw,1987,Elite Iron,GA,107.3,60,75,82.5,82.5,35,50,65,65,65,105,115,115,262.5,,
5,Amber Dumbuya,F,SBD,FR-O,100+,Raw,1991,,GA,101.05,70,75,80,80,30,42.5,52.5,52.5,70,80,-95,80,212.5,,
1,Marissa Weidner,F,SBD,FR-O,67.5,Raw,1995,Elite Iron,GA,67.45,115,117.5,122.5,122.5,97.5,102.5,-110,102.5,160,165,-172.5,165,390,,
2,Averi Barinowski,F,SBD,FR-O,67.5,Raw,2002,Kennesaw Barbell,GA,65.7,107.5,112.5,117.5,117.5,62.5,67.5,70,70,112.5,117.5,125,125,312.5,,
3,Elizabeth Buchanan,F,SBD,FR-O,67.5,Raw,2000,Eagle Power,GA,62.85,107.5,117.5,-127.5,117.5,65,70,-75,70,107.5,115,120,120,307.5,,
4,Dena Mellick,F,SBD,FR-O,67.5,Raw,1981,,GA,63.6,90,95,-102.5,95,42.5,47.5,50,50,115,122.5,130,130,275,,
5,Elizabeth Kennedy,F,SBD,FR-O,67.5,Raw,1992,TruBorn Strong,GA,66.15,85,92.5,105,105,50,60,-65,60,90,97.5,-107.5,97.5,262.5,,
6,Mackenzie Ingram,F,SBD,FR-O,67.5,Raw,2006,,GA,66.45,92.5,-102.5,-102.5,92.5,-47.5,47.5,50,50,102.5,112.5,120,120,262.5,,
7,MaryAngela Kottis,F,SBD,FR-O,67.5,Raw,2000,TruBorn Strong,GA,66.95,80,82.5,,82.5,50,52.5,55,55,100,110,115,115,252.5,,
1,Isabelle Boughadou,F,SBD,FR-O,82.5,Raw,1999,TruBorn Strong,GA,75.1,120,130,137.5,137.5,85,90,92.5,92.5,160,172.5,180,180,410,,
2,Hannah Warren,F,SBD,FR-O,82.5,Raw,1997,Team BAM,GA,78.15,135,142.5,-150,142.5,62.5,65,67.5,67.5,147.5,152.5,157.5,157.5,367.5,,
3,Dana Bloomfield,F,SBD,FR-O,82.5,Raw,1998,,GA,80.9,125,132.5,140,140,65,70,72.5,72.5,130,142.5,155,155,367.5,,
4,Ariel Reaves,F,SBD,FR-O,82.5,Raw,1993,TruBorn Strong,GA,82.2,117.5,122.5,125,125,75,80,85,85,122.5,132.5,140,140,350,,
5,Kristen Hutson,F,SBD,FR-O,82.5,Raw,1993,TruBorn Strong,GA,80.45,105,110,117.5,117.5,60,62.5,67.5,67.5,135,140,145,145,330,,
6,Jesse James #1,F,SBD,FR-O,82.5,Raw,2005,,GA,82.3,97.5,105,112.5,112.5,55,57.5,62.5,62.5,100,107.5,115,115,290,,
7,Trinity Mook,F,SBD,FR-O,82.5,Raw,2007,,GA,81.65,-105,-105,105,105,45,55,60,60,100,110,120,120,285,,
8,Holly Rogers,F,SBD,FR-O,82.5,Raw,1984,,GA,79.8,60,65,70,70,42.5,-47.5,-47.5,42.5,82.5,92.5,-102.5,92.5,205,,
1,Lillianna Delp,F,SBD,FR-T1,52,Raw,2008,TruBorn Strong,GA,50.9,77.5,85,-90,85,42.5,45,-47.5,45,100,107.5,112.5,112.5,242.5,,
1,Caitlin Herhold,F,SBD,FR-T1,75,Raw,2007,TruBorn Strong,GA,72.55,90,97.5,100,100,-40,45,-47.5,45,90,100,105,105,250,,
1,Trinity Mook,F,SBD,FR-T1,82.5,Raw,2007,,GA,81.65,-105,-105,105,105,45,55,60,60,100,110,120,120,285,,
1,Abigail Adams,F,SBD,FR-T2,56,Raw,2007,,GA,55.1,52.5,57.5,-62.5,57.5,25,30,-35,30,60,-65,70,70,157.5,,
1,Lindsey Noble,F,SBD,FR-T2,67.5,Raw,2005,,GA,63.5,85,-90,-90,85,62.5,67.5,70,70,102.5,110,115,115,270,,
2,Mackenzie Ingram,F,SBD,FR-T2,67.5,Raw,2006,,GA,66.45,92.5,-102.5,-102.5,92.5,-47.5,47.5,50,50,102.5,112.5,120,120,262.5,,
1,Jesse James #1,F,SBD,FR-T2,82.5,Raw,2005,,GA,82.3,97.5,105,112.5,112.5,55,57.5,62.5,62.5,100,107.5,115,115,290,,
1,Mariah Clements,F,SBD,FR-T3,52,Raw,2003,Eagle Power,GA,51,87.5,90,95,95,47.5,-52.5,-52.5,47.5,110,112.5,117.5,117.5,260,,
1,Ayla Teresi,F,SBD,FR-T3,75,Raw,2005,,GA,70.15,135,-140,140,140,80,82.5,85,85,155,162.5,170,170,395,,
2,Jenna Reese,F,SBD,FR-T3,75,Raw,2004,Kennesaw Barbell,GA,73.4,97.5,102.5,-110,102.5,52.5,57.5,-60,57.5,110,120,127.5,127.5,287.5,,
3,Lyong Kyong McDonald,F,SBD,FR-T3,75,Raw,2003,,GA,68.8,85,92.5,100,100,42.5,47.5,55,55,90,102.5,112.5,112.5,267.5,,
4,Alexa Bouche,F,SBD,FR-T3,75,Raw,2004,,GA,72.3,105,107.5,110,110,40,45,-52.5,45,100,107.5,110,110,265,,
1,Katie Kahn,F,SBD,FR-T3,100,Raw,2003,,GA,94.25,-110,115,120,120,52.5,57.5,60,60,125,137.5,145,145,325,,
1,Sierra Ellis,F,SBD,FR-T3,67.5,Raw,2003,,GA,64.55,102.5,105,-107.5,105,70,-72.5,-72.5,70,135,140,142.5,142.5,317.5,,
1,Macie Lammey,F,SBD,FR-Y1,44,Raw,2013,,GA,43.15,30,35,-40,35,17.5,20,22.5,22.5,52.5,60,65,65,122.5,,
1,Karley Corless,F,SBD,FR-Y2,44,Raw,2012,,GA,41.65,30,35,-42.5,35,17.5,22.5,-25,22.5,52.5,57.5,-65,57.5,115,,
1,Olivia Fleetwood,F,SBD,FR-Y3,52,Raw,2009,,GA,51.25,75,82.5,87.5,87.5,37.5,42.5,45,45,85,92.5,97.5,97.5,230,,
1,Abigail Pettyjohn,F,SBD,FR-Y3,100,Raw,2010,Elite Iron,GA,98.9,70,75,-80,75,32.5,35,40,40,75,80,-90,80,195,,
DQ,Nolan Code,M,SBD,M-M1b,125,Single-ply,1978,,GA,120.2,-145,-145,-145,,-142.5,,,,,,,,,,
DQ,Nolan Code,M,SBD,M-O,125,Single-ply,1978,,GA,120.2,-145,-145,-145,,-142.5,,,,,,,,,,
1,Justin Odom #1,M,SBD,M-O,140,Single-ply,1995,Team BAM,GA,128.55,312.5,332.5,-342.5,332.5,185,-187.5,,185,285,300,315,315,832.5,,
G,Ravikiran Nataraj,M,SBD,MR-G,100,Raw,2002,,AL,99.05,170,185,190,190,105,110,115,115,185,200,207.5,207.5,512.5,,
1,Christopher Shaw,M,SBD,MR-Jr,56,Raw,2000,Eagle Power,GA,54.9,125,135,142.5,142.5,72.5,77.5,80,80,140,152.5,-160,152.5,375,,
1,Jossias Gutierrez,M,SBD,MR-Jr,60,Raw,1999,,GA,59.65,142.5,155,162.5,162.5,85,90,95,95,240,252.5,-257.5,252.5,510,,
1,Ky-Vinh Nguyen,M,SBD,MR-Jr,75,Raw,2002,Georgia State University Barbell Club,GA,74.95,215,-225,-225,215,140,145,147.5,147.5,240,255,-262.5,255,617.5,,
2,Marcus Barfield,M,SBD,MR-Jr,75,Raw,1999,,GA,73.8,187.5,197.5,202.5,202.5,112.5,120,-125,120,235,247.5,252.5,252.5,575,,
3,Pletch Bennett,M,SBD,MR-Jr,75,Raw,2002,,GA,74.45,155,170,187.5,187.5,110,122.5,130,130,205,232.5,-237.5,232.5,550,,
4,Hunter McNeil,M,SBD,MR-Jr,75,Raw,1999,,GA,71.95,152.5,167.5,182.5,182.5,110,125,-135,125,192.5,210,220,220,527.5,,
5,Jay Jaganaath,M,SBD,MR-Jr,75,Raw,2000,Georgia Tech Barbell Club,GA,75,180,192.5,-195,192.5,110,-117.5,-117.5,110,200,212.5,-215,212.5,515,,
6,Leo Garcia Luna,M,SBD,MR-Jr,75,Raw,2002,Kennesaw Barbell,GA,74.6,155,162.5,170,170,92.5,97.5,102.5,102.5,205,215,-227.5,215,487.5,,
7,Neo Treaster,M,SBD,MR-Jr,75,Raw,2000,,GA,73.1,162.5,172.5,-182.5,172.5,100,105,110,110,180,192.5,202.5,202.5,485,,
8,Brandon Nguyen,M,SBD,MR-Jr,75,Raw,2002,Fueled Mafia,GA,72,127.5,140,150,150,97.5,102.5,-112.5,102.5,-177.5,185,195,195,447.5,,
9,Jeffrey de Galleford,M,SBD,MR-Jr,75,Raw,2000,Kennesaw Barbell,GA,69.15,125,135,-145,135,92.5,97.5,-102.5,97.5,175,185,195,195,427.5,,
DQ,Wilgen Perez-Perez,M,SBD,MR-Jr,75,Raw,2003,Georgia Tech Barbell Club,GA,68.25,-165,-165,-165,,87.5,-92.5,92.5,92.5,200,-210,-210,200,,,
DQ,Bo Buis,M,SBD,MR-Jr,75,Raw,2001,Georgia Tech Barbell Club,GA,73.6,150,165,172.5,172.5,90,97.5,-110,97.5,165,182.5,200,200,,,
1,EJ Holmes,M,SBD,MR-Jr,90,Raw,2001,Eagle Power,GA,88.95,230,240,252.5,252.5,152.5,157.5,162.5,162.5,275,295,-320,295,710,,
2,Edson Torres,M,SBD,MR-Jr,90,Raw,2001,Eagle Power,GA,87.75,210,-230,230,230,120,127.5,-135,127.5,265,280,-290,280,637.5,,
3,Joseph Saucedo #1,M,SBD,MR-Jr,90,Raw,1999,,GA,89.95,200,210,215,215,150,157.5,-160,157.5,230,-245,-252.5,230,602.5,,
4,Antawan Reynolds,M,SBD,MR-Jr,90,Raw,2001,Fueled Mafia,GA,87.65,205,215,220,220,125,130,137.5,137.5,197.5,210,220,220,577.5,,
5,Huy Vo,M,SBD,MR-Jr,90,Raw,2002,,GA,87.65,182.5,192.5,200,200,135,137.5,142.5,142.5,195,205,-215,205,547.5,,
6,Matthew Burger,M,SBD,MR-Jr,90,Raw,2002,,GA,88.4,-175,182.5,185,185,100,110,120,120,182.5,195,215,215,520,,
7,Saket Shirsath,M,SBD,MR-Jr,90,Raw,2000,Georgia Tech Barbell Club,GA,88.5,165,182.5,192.5,192.5,95,105,117.5,117.5,185,197.5,210,210,520,,
8,Yuvraj Tripathy,M,SBD,MR-Jr,90,Raw,2001,Georgia Tech Barbell Club,GA,87.05,170,180,195,195,90,97.5,-105,97.5,202.5,220,-235,220,512.5,,
9,Jake Steele,M,SBD,MR-Jr,90,Raw,2001,,GA,88.84,147.5,155,165,165,110,-117.5,-122.5,110,175,190,200,200,475,,
10,Karan Gosrani,M,SBD,MR-Jr,90,Raw,2003,,GA,86.85,140,160,-190,160,80,82.5,-107.5,82.5,160,180,207.5,207.5,450,,
11,Shane Browder,M,SBD,MR-Jr,90,Raw,2000,,GA,87.6,115,-125,140,140,-107.5,110,112.5,112.5,115,182.5,192.5,192.5,445,,
1,Craig Rodgers,M,SBD,MR-Jr,100,Raw,2000,,GA,98.15,195,-210,210,210,145,152.5,-157.5,152.5,272.5,285,295,295,657.5,,
2,Jack Rupley,M,SBD,MR-Jr,100,Raw,2003,,GA,92.6,185,192.5,202.5,202.5,115,125,130,130,-215,240,250,250,582.5,,
3,Kevin Le,M,SBD,MR-Jr,100,Raw,2002,Pioneered Strength,GA,98.2,210,-220,225,225,127.5,135,-137.5,135,205,222.5,-230,222.5,582.5,,
4,Tarnue Borbor,M,SBD,MR-Jr,100,Raw,2001,Kennesaw Barbell,GA,99.85,212.5,222.5,-232.5,222.5,117.5,125,-140,125,205,220,227.5,227.5,575,,
5,Ariel Barrientos,M,SBD,MR-Jr,100,Raw,2000,,GA,98.5,177.5,-187.5,195,195,105,115,120,120,235,245,255,255,570,,
6,Austin Roach Delk,M,SBD,MR-Jr,100,Raw,2002,Elite Iron,GA,98.95,187.5,-195,195,195,-120,120,-127.5,120,185,197.5,205,205,520,,
7,Jeancarlos Penalver Atay,M,SBD,MR-Jr,100,Raw,2001,TruBorn Strong,GA,97.1,140,145,150,150,105,110,-115,110,170,180,190,190,450,,
8,Logan Norrell,M,SBD,MR-Jr,100,Raw,2003,Kennesaw Barbell,GA,90.6,140,150,155,155,75,80,82.5,82.5,167.5,177.5,185,185,422.5,,
1,Eli Parker #1,M,SBD,MR-Jr,110,Raw,2002,,GA,105.85,242.5,255,262.5,262.5,165,170,-175,170,252.5,275,280,280,712.5,,
2,Noah Whitham,M,SBD,MR-Jr,110,Raw,2002,Kennesaw Barbell,GA,107.45,240,252.5,257.5,257.5,175,180,182.5,182.5,257.5,267.5,-275,267.5,707.5,,
3,Jordan John,M,SBD,MR-Jr,110,Raw,2000,Georgia Tech Barbell Club,GA,105.7,215,225,232.5,232.5,150,157.5,162.5,162.5,255,-257.5,,255,650,,
4,Daniel Tikalsky,M,SBD,MR-Jr,110,Raw,2002,Georgia Tech Barbell Club,GA,109.35,212.5,225,-230,225,152.5,165,-172.5,165,-225,242.5,-260,242.5,632.5,,
5,Jack Dodson,M,SBD,MR-Jr,110,Raw,2000,Kennesaw Barbell,GA,101.9,-210,217.5,220,220,110,117.5,120,120,275,280,285,285,625,,
6,Taylor Smith #15,M,SBD,MR-Jr,110,Raw,2000,,GA,105.95,192.5,210,227.5,227.5,95,105,112.5,112.5,-190,200,220,220,560,,
1,Hunter Galbraith,M,SBD,MR-Jr,125,Raw,2001,Eagle Power,GA,120.45,255,272.5,287.5,287.5,172.5,182.5,-190,182.5,247.5,262.5,272.5,272.5,742.5,,
2,Eduardo Santos,M,SBD,MR-Jr,125,Raw,2002,Pioneered Strength,GA,117,165,170,172.5,172.5,100,107.5,112.5,112.5,160,182.5,190,190,475,,
1,DeVante Willis,M,SBD,MR-Jr,140,Raw,2002,Team BAM,GA,134.8,247.5,255,267.5,267.5,155,-162.5,-162.5,155,210,222.5,-245,222.5,645,,
1,Jason Kirkbride,M,SBD,MR-Jr,140+,Raw,2002,Pioneered Strength,GA,144.5,182.5,190,200,200,115,120,-130,120,192.5,202.5,215,215,535,,
1,Andrew Munsey,M,SBD,MR-Jr,67.5,Raw,2001,Fueled Mafia,GA,66.45,172.5,182.5,192.5,192.5,97.5,105,115,115,190,202.5,-215,202.5,510,,
2,Jimmy Nguyen,M,SBD,MR-Jr,67.5,Raw,1999,Georgia State University Barbell Club,GA,63.25,110,-115,-117.5,110,92.5,97.5,-100,97.5,150,157.5,-172.5,157.5,365,,
DQ,Michael Dang,M,SBD,MR-Jr,67.5,Raw,2001,,GA,65.6,-135,-135,-135,,70,-75,75,75,-167.5,167.5,-187.5,167.5,,,
1,Keir Pienaar,M,SBD,MR-Jr,82.5,Raw,2002,Fueled Mafia,GA,80.1,205,215,220,220,140,145,-152.5,145,245,257.5,-262.5,257.5,622.5,,
2,Jackson Agin,M,SBD,MR-Jr,82.5,Raw,2000,Elite Iron,GA,80.05,195,205,215,215,120,125,130,130,195,205,212.5,212.5,557.5,,
3,Matthew Albizzatti,M,SBD,MR-Jr,82.5,Raw,2002,Kennesaw Barbell,GA,81.5,190,200,-202.5,200,102.5,107.5,110,110,230,237.5,-250,237.5,547.5,,
4,James Whidden,M,SBD,MR-Jr,82.5,Raw,2000,,GA,80.7,155,167.5,172.5,172.5,115,122.5,-130,122.5,220,230,240,240,535,,
5,Andrew Goeden,M,SBD,MR-Jr,82.5,Raw,2000,,GA,80.75,170,185,-187.5,185,137.5,142.5,-147.5,142.5,180,185,-192.5,185,512.5,,
6,Sean Whatley,M,SBD,MR-Jr,82.5,Raw,2002,Eagle Power,GA,80.6,-180,180,-190,180,87.5,97.5,-105,97.5,170,180,185,185,462.5,,
7,Roshan Muthugomu,M,SBD,MR-Jr,82.5,Raw,2002,,GA,77.85,-150,-150,150,150,85,87.5,90,90,205,207.5,212.5,212.5,452.5,,
8,Jack Showalter,M,SBD,MR-Jr,82.5,Raw,2002,,GA,77.35,137.5,145,-160,145,102.5,110,-117.5,110,175,190,195,195,450,,
9,Micah Hill,M,SBD,MR-Jr,82.5,Raw,2002,,GA,80.25,140,150,-160,150,95,100,105,105,160,170,180,180,435,,
10,Jonathan Penalver,M,SBD,MR-Jr,82.5,Raw,2003,TruBorn Strong,GA,81.15,120,160,-200,160,90,92.5,95,95,150,165,170,170,425,,
DQ,Jeremy Lapierre,M,SBD,MR-M1,100,Raw,1981,,GA,99.7,-200,-200,-200,,-120,120,130,130,200,210,220,220,,,
1,Leonard Brooks,M,SBD,MR-M1,125,Raw,1974,Elite Iron,GA,123.7,185,197.5,-207.5,197.5,147.5,157.5,165,165,217.5,232.5,240,240,602.5,,
1,Jason Vaughan,M,SBD,MR-M1,140,Raw,1975,,GA,136.55,140,-150,-150,140,-95,100,-105,100,140,150,165,165,405,,
1,Troy Williams #1,M,SBD,MR-M1,140+,Raw,1978,,GA,177.9,-217.5,217.5,-242.5,217.5,137.5,-145,-145,137.5,-235,-257.5,257.5,257.5,612.5,,
DQ,Scott Berryman,M,SBD,MR-M2,75,Raw,1966,,GA,74.15,155,-160,-162.5,155,-120,-122.5,-122.5,,162.5,170,-175,170,,,
1,Todd Vande Zande,M,SBD,MR-M2,100,Raw,1967,,GA,93.65,125,132.5,137.5,137.5,125,132.5,140,140,137.5,147.5,157.5,157.5,435,,
1,Darrell Allen,M,SBD,MR-M3,100,Raw,1961,,GA,92.3,180,195,-205,195,145,155,-157.5,155,182.5,195,205,205,555,,
1,Kurt Morris,M,SBD,MR-M3,67.5,Raw,1958,Elite Iron,GA,64.75,132.5,140,142.5,142.5,70,-75,-75,70,193,203,-205.5,203,415.5,,
DQ,Richard Wittmann,M,SBD,MR-M3,82.5,Raw,1956,,GA,81.28,-110,-115,-115,,112.5,117.5,-125,117.5,80,110,125,125,,,
1,Christopher Shaw,M,SBD,MR-O,56,Raw,2000,Eagle Power,GA,54.9,125,135,142.5,142.5,72.5,77.5,80,80,140,152.5,-160,152.5,375,,
DQ,Justin Noller,M,SBD,MR-O,56,Raw,2005,,GA,54.9,-145,-155,-155,,-75,,,,167.5,182.5,-192.5,182.5,,,
1,Jossias Gutierrez,M,SBD,MR-O,60,Raw,1999,,GA,59.65,142.5,155,162.5,162.5,85,90,95,95,240,252.5,-257.5,252.5,510,,
2,Nick Luu,M,SBD,MR-O,60,Raw,1998,,GA,59.45,155,160,170,170,100,105,-107.5,105,185,192.5,-200,192.5,467.5,,
3,Rohan Kumar,M,SBD,MR-O,60,Raw,2005,,GA,59.2,-127.5,127.5,132.5,132.5,67.5,72.5,75,75,152.5,157.5,162.5,162.5,370,,
DQ,Jeff Rogers,M,SBD,MR-O,60,Raw,1986,,GA,59.25,102.5,-107.5,-107.5,102.5,-70,-70,,,125,140,145,145,,,
1,Tomohiro Sasaki,M,SBD,MR-O,75,Raw,1996,Georgia Tech Barbell Club,GA,74.45,205,217.5,235,235,150,-160,160,160,240,255,-270,255,650,,
2,Ky-Vinh Nguyen,M,SBD,MR-O,75,Raw,2002,Georgia State University Barbell Club,GA,74.95,215,-225,-225,215,140,145,147.5,147.5,240,255,-262.5,255,617.5,,
3,Long Truong,M,SBD,MR-O,75,Raw,1994,,GA,74.95,205,215,-227.5,215,145,150,155,155,240,-252.5,-252.5,240,610,,
4,Kofi Mensah,M,SBD,MR-O,75,Raw,1995,,GA,74.3,200,-212.5,-215,200,132.5,-142.5,-142.5,132.5,227.5,265,-272.5,265,597.5,,
5,Gregory Luu,M,SBD,MR-O,75,Raw,1992,Team Luu,GA,74.95,195,205,207.5,207.5,127.5,135,-137.5,135,215,225,237.5,237.5,580,,
6,Marcus Barfield,M,SBD,MR-O,75,Raw,1999,,GA,73.8,187.5,197.5,202.5,202.5,112.5,120,-125,120,235,247.5,252.5,252.5,575,,
7,Chiehmeng Chen,M,SBD,MR-O,75,Raw,1993,,GA,72.1,-197.5,197.5,-215,197.5,117.5,125,-130,125,215,225,-235,225,547.5,,
8,Kevin Nguyen #10,M,SBD,MR-O,75,Raw,2000,,GA,73.75,197.5,-207.5,-210,197.5,127.5,-132.5,-132.5,127.5,197.5,200,207.5,207.5,532.5,,
9,Andrew Hankins,M,SBD,MR-O,75,Raw,1991,,GA,73.15,175,185,190,190,117.5,125,-132.5,125,185,197.5,210,210,525,,
10,Alex Ta,M,SBD,MR-O,75,Raw,1997,,GA,74.9,160,167.5,175,175,112.5,117.5,-122.5,117.5,185,195,-207.5,195,487.5,,
11,Tyler Carter #2,M,SBD,MR-O,75,Raw,1990,TruBorn Strong,GA,72.25,140,150,-157.5,150,107.5,112.5,-115,112.5,185,200,-207.5,200,462.5,,
12,Nicholas Arcila,M,SBD,MR-O,75,Raw,2004,,GA,72.1,147.5,155,165,165,82.5,90,-92.5,90,175,185,195,195,450,,
13,Brandon Nguyen,M,SBD,MR-O,75,Raw,2002,Fueled Mafia,GA,72,127.5,140,150,150,97.5,102.5,-112.5,102.5,-177.5,185,195,195,447.5,,
14,Christopher Weitzen,M,SBD,MR-O,75,Raw,1985,,GA,73.15,107.5,115,122.5,122.5,95,100,-105,100,160,177.5,-190,177.5,400,,
1,EJ Holmes,M,SBD,MR-O,90,Raw,2001,Eagle Power,GA,88.95,230,240,252.5,252.5,152.5,157.5,162.5,162.5,275,295,-320,295,710,,
2,Nevin Jr Harton,M,SBD,MR-O,90,Raw,1994,TruBorn Strong,GA,86.85,-262.5,262.5,272.5,272.5,132.5,137.5,142.5,142.5,-270,280,-295,280,695,,
3,Avery Collins,M,SBD,MR-O,90,Raw,1998,,GA,84.15,242.5,-247.5,-247.5,242.5,135,140,142.5,142.5,265,282.5,300,300,685,,
4,Juan Castilla,M,SBD,MR-O,90,Raw,1996,,GA,88.05,230,237.5,-252.5,237.5,130,140,150,150,227.5,240,252.5,252.5,640,,
5,Edson Torres,M,SBD,MR-O,90,Raw,2001,Eagle Power,GA,87.75,210,-230,230,230,120,127.5,-135,127.5,265,280,-290,280,637.5,,
6,Matthew Martin,M,SBD,MR-O,90,Raw,1995,,GA,87.9,185,205,210,210,130,137.5,147.5,147.5,225,245,262.5,262.5,620,,
7,Wilson Snead,M,SBD,MR-O,90,Raw,1992,,GA,88.45,217.5,230,240,240,120,127.5,-132.5,127.5,227.5,242.5,252.5,252.5,620,,
8,Joseph Saucedo #1,M,SBD,MR-O,90,Raw,1999,,GA,89.95,200,210,215,215,150,157.5,-160,157.5,230,-245,-252.5,230,602.5,,
9,Aaron Teetor,M,SBD,MR-O,90,Raw,1994,,GA,87.85,185,197.5,210,210,130,137.5,-147.5,137.5,210,225,235,235,582.5,,
10,Henry Kushner,M,SBD,MR-O,90,Raw,1991,Elite Iron,GA,89.3,170,182.5,192.5,192.5,127.5,135,137.5,137.5,217.5,-232.5,237.5,237.5,567.5,,
11,Jason Wolfe,M,SBD,MR-O,90,Raw,1986,Team BAM,GA,90,-187.5,197.5,202.5,202.5,130,135,-142.5,135,212.5,227.5,-247.5,227.5,565,,
12,Aron Weatherford,M,SBD,MR-O,90,Raw,1997,Pioneered Strength,GA,82.65,187.5,192.5,197.5,197.5,115,120,122.5,122.5,222.5,232.5,240,240,560,,
13,Evan Leka,M,SBD,MR-O,90,Raw,2006,,GA,89.55,215,-230,-230,215,130,-140,-140,130,177.5,200,-212.5,200,545,,
14,Marcus Pham,M,SBD,MR-O,90,Raw,2002,,GA,86.85,165,175,187.5,187.5,95,105,-110,105,197.5,215,222.5,222.5,515,,
15,Chandler White,M,SBD,MR-O,90,Raw,1998,Georgia State University Barbell Club,GA,85.45,150,160,175,175,110,120,125,125,175,190,210,210,510,,
16,Jake Steele,M,SBD,MR-O,90,Raw,2001,,GA,88.84,147.5,155,165,165,110,-117.5,-122.5,110,175,190,200,200,475,,
17,Austin Cookman,M,SBD,MR-O,90,Raw,2001,,GA,89.25,152.5,165,-172.5,165,102.5,110,-115,110,167.5,172.5,177.5,177.5,452.5,,
18,Jason Edgcomb,M,SBD,MR-O,90,Raw,1995,TruBorn Strong,GA,88.25,130,140,150,150,80,-87.5,90,90,180,190,200,200,440,,
19,Philip Song,M,SBD,MR-O,90,Raw,1998,,GA,87.35,125,137.5,147.5,147.5,80,85,90,90,157.5,170,182.5,182.5,420,,
20,Steven Thai,M,SBD,MR-O,90,Raw,1998,,GA,89,137.5,142.5,150,150,75,77.5,82.5,82.5,162.5,175,182.5,182.5,415,,
21,Kyle White #1,M,SBD,MR-O,90,Raw,2003,Kennesaw Barbell,GA,89.65,75,,,75,160,167.5,175,175,75,,,75,325,,
1,Joshua Nougaisse,M,SBD,MR-O,100,Raw,1996,,GA,97.7,-250,275,300,300,195,205,212.5,212.5,260,292.5,305,305,817.5,,
2,Daquan Studstill,M,SBD,MR-O,100,Raw,1996,,GA,99.7,275,295,297.5,297.5,175,185,187.5,187.5,290,310,320,320,805,,
3,Joshua Espinosa #1,M,SBD,MR-O,100,Raw,1996,,GA,98.45,262.5,275,-280,275,182.5,-190,,182.5,282.5,295,310,310,767.5,,
4,Quentin White,M,SBD,MR-O,100,Raw,1993,TruBorn Strong,GA,99.7,237.5,252.5,262.5,262.5,182.5,190,-195,190,285,305,-317.5,305,757.5,,
5,Victor Sanchez,M,SBD,MR-O,100,Raw,1993,,GA,98.95,235,265,272.5,272.5,142.5,150,,150,250,-265,-265,250,672.5,,
6,Edroyal Womack,M,SBD,MR-O,100,Raw,1991,Georgia State University Barbell Club,GA,94.15,200,207.5,220,220,152.5,157.5,-165,157.5,250,-265,-265,250,627.5,,
7,Alpha Dumbuya,M,SBD,MR-O,100,Raw,1985,,GA,95.7,195,210,220,220,115,120,-125,120,240,260,272.5,272.5,612.5,,
8,Dylan McCouch,M,SBD,MR-O,100,Raw,1993,,GA,96.1,190,200,207.5,207.5,122.5,130,135,135,230,240,247.5,247.5,590,,
9,Justice Law,M,SBD,MR-O,100,Raw,1992,TruBorn Strong,GA,97.45,190,200,210,210,125,-132.5,-132.5,125,217.5,232.5,250,250,585,,
10,Pete Perrin,M,SBD,MR-O,100,Raw,1996,Elite Iron,GA,97.5,187.5,200,207.5,207.5,125,132.5,-135,132.5,227.5,242.5,-252.5,242.5,582.5,,
11,Seth Hinson #1,M,SBD,MR-O,100,Raw,1998,,GA,97.85,170,180,185,185,155,-160,-160,155,215,230,242.5,242.5,582.5,,
12,Opal Patel,M,SBD,MR-O,100,Raw,1998,Fueled Mafia,GA,98.25,-187.5,187.5,-195,187.5,115,122.5,127.5,127.5,237.5,250,-260,250,565,,
13,Darius Stevens,M,SBD,MR-O,100,Raw,1997,Fueled Mafia,GA,98.15,172.5,-182.5,185,185,125,132.5,-137.5,132.5,197.5,207.5,217.5,217.5,535,,
14,Candido Santana,M,SBD,MR-O,100,Raw,1994,TruBorn Strong,GA,97.8,-160,160,182.5,182.5,-95,100,110,110,195,210,225,225,517.5,,
15,Parker Ledworowski,M,SBD,MR-O,100,Raw,2002,TruBorn Strong,GA,96.85,120,130,140,140,90,92.5,-100,92.5,140,-170,-170,140,372.5,,
1,Kurtis Farmer,M,SBD,MR-O,110,Raw,1998,,GA,108.9,250,267.5,280,280,157.5,167.5,177.5,177.5,275,292.5,-307.5,292.5,750,,
2,Eli Parker #1,M,SBD,MR-O,110,Raw,2002,,GA,105.85,242.5,255,262.5,262.5,165,170,-175,170,252.5,275,280,280,712.5,,
3,Cordell Estrada,M,SBD,MR-O,110,Raw,1986,,GA,108.85,225,235,-247.5,235,172.5,-177.5,-177.5,172.5,275,287.5,-307.5,287.5,695,,
4,Dylan Aldridge,M,SBD,MR-O,110,Raw,1997,Team BAM,GA,107.35,212.5,220,230,230,135,-140,-140,135,220,227.5,235,235,600,,
5,Christian Rodriguez #12,M,SBD,MR-O,110,Raw,1998,,GA,108.7,200,210,217.5,217.5,127.5,135,142.5,142.5,212.5,220,-225,220,580,,
6,Tyson Wynn,M,SBD,MR-O,110,Raw,1985,,GA,100.35,170,185,192.5,192.5,130,142.5,150,150,205,220,-227.5,220,562.5,,
1,Quentin Postell,M,SBD,MR-O,125,Raw,1998,,GA,116.2,252.5,267.5,277.5,277.5,192.5,-197.5,,192.5,300,315,330,330,800,,
2,Carlton Beasley,M,SBD,MR-O,125,Raw,1997,Elite Iron,GA,122.4,290,302.5,310,310,160,165,167.5,167.5,280,295,-310,295,772.5,,
3,John Griffin,M,SBD,MR-O,125,Raw,1998,,GA,117.35,230,237.5,245,245,167.5,-177.5,180,180,225,240,-252.5,240,665,,
4,Leonard Brooks,M,SBD,MR-O,125,Raw,1974,Elite Iron,GA,123.7,185,197.5,-207.5,197.5,147.5,157.5,165,165,217.5,232.5,240,240,602.5,,
5,Marquese Stallworth,M,SBD,MR-O,125,Raw,1997,,GA,122.8,210,220,230,230,145,152.5,162.5,162.5,-202.5,202.5,-215,202.5,595,,
6,Ray Nosari,M,SBD,MR-O,125,Raw,1988,,GA,123.55,185,200,207.5,207.5,130,140,147.5,147.5,190,205,215,215,570,,
7,Ahmad Anwary,M,SBD,MR-O,125,Raw,1990,,GA,124.65,-142.5,-142.5,142.5,142.5,142.5,147.5,-160,147.5,215,222.5,-237.5,222.5,512.5,,
1,Devon Smart,M,SBD,MR-O,140,Raw,1991,TruBorn Strong,GA,130.65,190,195,200,200,125,127.5,-132.5,127.5,220,230,240,240,567.5,,
1,Isaiah McCoy,M,SBD,MR-O,140+,Raw,1997,Team BAM,GA,146.45,305,317.5,320,320,185,190,192.5,192.5,267.5,-287.5,-290,267.5,780,,
2,Troy Williams #1,M,SBD,MR-O,140+,Raw,1978,,GA,177.9,-217.5,217.5,-242.5,217.5,137.5,-145,-145,137.5,-235,-257.5,257.5,257.5,612.5,,
1,Darious Stokes,M,SBD,MR-O,67.5,Raw,1996,,GA,65.9,215,-225,,215,125,-132.5,132.5,132.5,250,260,-265,260,607.5,,
2,Michael Ilardi,M,SBD,MR-O,67.5,Raw,1996,Team Luu,GA,66.85,185,197.5,-205,197.5,122.5,127.5,-132.5,127.5,215,227.5,245,245,570,,
3,Fernando Morales,M,SBD,MR-O,67.5,Raw,1997,TruBorn Strong,GA,67.15,185,195,205,205,125,-130,-130,125,205,217.5,-227.5,217.5,547.5,,
4,David Perez #7,M,SBD,MR-O,67.5,Raw,1996,,GA,66.8,155,167.5,-175,167.5,120,127.5,-137.5,127.5,172.5,182.5,190,190,485,,
1,Ross Leppala,M,SBD,MR-O,82.5,Raw,1984,,GA,82.3,240,255,265,265,170,177.5,182.5,182.5,252.5,270,,270,717.5,,
2,Edward Hinson,M,SBD,MR-O,82.5,Raw,2001,Eagle Power,GA,81.05,227.5,245,-247.5,245,130,137.5,142.5,142.5,275,300,-310,300,687.5,,
3,William Ruff,M,SBD,MR-O,82.5,Raw,1989,,GA,81.2,225,237.5,247.5,247.5,130,137.5,142.5,142.5,240,257.5,-272.5,257.5,647.5,,
4,Dennis Obregon,M,SBD,MR-O,82.5,Raw,1998,Fueled Mafia,GA,81.1,-232.5,232.5,-245,232.5,132.5,137.5,-142.5,137.5,232.5,245,257.5,257.5,627.5,,
5,Jacob Hickman,M,SBD,MR-O,82.5,Raw,2003,Eagle Power,GA,80.15,210,225,-235,225,150,-157.5,-157.5,150,230,247.5,-265,247.5,622.5,,
6,Deandre Watkins,M,SBD,MR-O,82.5,Raw,1995,TruBorn Strong,GA,81.55,200,-205,-205,200,125,130,-132.5,130,250,262.5,-272.5,262.5,592.5,,
7,Matthew Moree,M,SBD,MR-O,82.5,Raw,1993,,GA,81.15,170,185,200,200,130,137.5,-142.5,137.5,220,235,250,250,587.5,,
8,Jackson Millwood,M,SBD,MR-O,82.5,Raw,2004,,GA,79.4,-185,190,-200,190,102.5,-110,-110,102.5,232.5,245,-252.5,245,537.5,,
9,Wesley Toler,M,SBD,MR-O,82.5,Raw,1993,,GA,80.4,140,147.5,-155,147.5,100,-105,107.5,107.5,185,200,205,205,460,,
10,Vontavian Brown,M,SBD,MR-O,82.5,Raw,2000,TruBorn Strong,GA,78.2,150,157.5,165,165,95,100,102.5,102.5,165,177.5,190,190,457.5,,
11,Jack Showalter,M,SBD,MR-O,82.5,Raw,2002,,GA,77.35,137.5,145,-160,145,102.5,110,-117.5,110,175,190,195,195,450,,
12,Matthew Scott,M,SBD,MR-O,82.5,Raw,1988,,GA,80.6,-110,110,-117.5,110,70,77.5,-82.5,77.5,145,155,165,165,352.5,,
1,Derek Ruiz,M,SBD,MR-T1,56,Raw,2007,,GA,54.45,142.5,-147.5,-147.5,142.5,80,82.5,87.5,87.5,145,155,165,165,395,,
DQ,Sebastian Menjivar,M,SBD,MR-T1,100,Raw,2007,,GA,98.7,-182.5,-182.5,-182.5,,87.5,95,100,100,185,195,207.5,207.5,,,
1,Damian Garro,M,SBD,MR-T1,67.5,Raw,2008,,GA,66.55,135,-145,-145,135,72.5,-77.5,-77.5,72.5,160,175,-200,175,382.5,,
1,Jackson Gandy,M,SBD,MR-T1,82.5,Raw,2007,,GA,80.5,145,160,170,170,90,92.5,-100,92.5,185,200,-207.5,200,462.5,,
DQ,Nathaniel LaGrange,M,SBD,MR-T2,56,Raw,2006,,GA,54.7,-97.5,-100,-105,,60,65,70,70,125,137.5,-145,137.5,,,
DQ,Justin Noller,M,SBD,MR-T2,56,Raw,2005,,GA,54.9,-145,-155,-155,,-75,,,,167.5,182.5,-192.5,182.5,,,
1,Rohan Kumar,M,SBD,MR-T2,60,Raw,2005,,GA,59.2,-127.5,127.5,132.5,132.5,67.5,72.5,75,75,152.5,157.5,162.5,162.5,370,,
1,Evan Leka,M,SBD,MR-T2,90,Raw,2006,,GA,89.55,215,-230,-230,215,130,-140,-140,130,177.5,200,-212.5,200,545,,
1,Rex Polly,M,SBD,MR-T2,100,Raw,2005,,GA,95.35,175,185,-190,185,125,135,140,140,182.5,192.5,205,205,530,,
2,Mauricio Marin,M,SBD,MR-T2,100,Raw,2006,,GA,99.15,-140,-142.5,142.5,142.5,75,80,85,85,135,142.5,155,155,382.5,,
1,Justin Walker,M,SBD,MR-T2,110,Raw,2006,,GA,108.75,185,195,-205,195,110,115,117.5,117.5,190,-205,-205,190,502.5,,
1,Eli Summerville,M,SBD,MR-T2,125,Raw,2006,,GA,110.8,227.5,235,242.5,242.5,112.5,117.5,125,125,190,205,220,220,587.5,,
1,Jeremiah Willingham,M,SBD,MR-T2,140,Raw,2006,,GA,130,160,170,180,180,115,125,130,130,180,200,210,210,520,,
1,Ethan Spry,M,SBD,MR-T2,67.5,Raw,2006,,GA,67.15,120,130,-137.5,130,82.5,90,-92.5,90,175,182.5,190,190,410,,
2,Luke Smith,M,SBD,MR-T2,67.5,Raw,2006,,GA,66.4,-125,125,-130,125,72.5,-80,-85,72.5,135,137.5,142.5,142.5,340,,
1,Shawn Wilson,M,SBD,MR-T2,82.5,Raw,2007,,GA,81.3,160,162.5,180,180,87.5,92.5,-95,92.5,207.5,217.5,-230,217.5,490,,
2,Caden Morehead,M,SBD,MR-T2,82.5,Raw,2006,,GA,81.45,165,167.5,182.5,182.5,92.5,-95,105,105,165,185,192.5,192.5,480,,
DQ,Troy Wimpey,M,SBD,MR-T2,82.5,Raw,2005,Team BAM,GA,81.15,192.5,-197.5,-197.5,192.5,120,125,-127.5,125,-202.5,-202.5,-202.5,,,,
1,Josh Zirlott,M,SBD,MR-T3,75,Raw,2004,Eagle Power,GA,72.55,205,217.5,225,225,117.5,125,132.5,132.5,210,222.5,232.5,232.5,590,,
2,Ryan Cook,M,SBD,MR-T3,75,Raw,2003,Georgia State University Barbell Club,GA,73.75,190,197.5,210,210,115,-127.5,-127.5,115,235,245,-255,245,570,,
3,Michael Gebara,M,SBD,MR-T3,75,Raw,2003,Georgia Tech Barbell Club,GA,74.35,180,192.5,197.5,197.5,105,-115,-115,105,225,240,252.5,252.5,555,,
4,James Huang,M,SBD,MR-T3,75,Raw,2004,Team Luu,GA,72.15,175,182.5,192.5,192.5,90,100,-115,100,-177.5,187.5,205,205,497.5,,
5,Jackson Lyons,M,SBD,MR-T3,75,Raw,2003,,GA,73.4,155,165,175,175,95,102.5,107.5,107.5,165,172.5,-182.5,172.5,455,,
6,Nicholas Arcila,M,SBD,MR-T3,75,Raw,2004,,GA,72.1,147.5,155,165,165,82.5,90,-92.5,90,175,185,195,195,450,,
1,Benjamin Oliver,M,SBD,MR-T3,90,Raw,2004,,GA,87.45,197.5,200,210,210,112.5,120,-127.5,120,195,200,205,205,535,,
2,Ryan Cao,M,SBD,MR-T3,90,Raw,2003,,GA,89.65,170,185,-192.5,185,100,107.5,112.5,112.5,212.5,227.5,235,235,532.5,,
3,Robert Weimer,M,SBD,MR-T3,90,Raw,2003,,GA,85.45,185,190,197.5,197.5,102.5,110,115,115,190,200,205,205,517.5,,
4,Faraz Bahman,M,SBD,MR-T3,90,Raw,2004,TruBorn Strong,GA,88.5,190,205,-212.5,205,92.5,100,102.5,102.5,182.5,195,210,210,517.5,,
5,Camden Valentine,M,SBD,MR-T3,90,Raw,2005,,GA,89.1,170,177.5,-187.5,177.5,95,100,-107.5,100,220,230,-235,230,507.5,,
6,Chris Lohr,M,SBD,MR-T3,90,Raw,2004,TruBorn Strong,GA,87.4,142.5,150,160,160,125,132.5,-135,132.5,170,182.5,-195,182.5,475,,
7,Kyle White #1,M,SBD,MR-T3,90,Raw,2003,Kennesaw Barbell,GA,89.65,75,,,75,160,167.5,175,175,75,,,75,325,,
1,Chidera Nwosu,M,SBD,MR-T3,100,Raw,2004,Eagle Power,GA,93,260,275,282.5,282.5,147.5,160,170,170,242.5,260,275,275,727.5,,
2,AJ Spencer,M,SBD,MR-T3,100,Raw,2003,,GA,95.3,182.5,197.5,205,205,115,122.5,125,125,225,245,-252.5,245,575,,
3,John Ozuna-Diaz,M,SBD,MR-T3,100,Raw,2003,Georgia State University Barbell Club,GA,97.25,185,195,200,200,117.5,-127.5,132.5,132.5,210,225,242.5,242.5,575,,
4,Samuel Buckner,M,SBD,MR-T3,100,Raw,2003,Kennesaw Barbell,GA,95.95,190,200,-205,200,130,-137.5,-137.5,130,200,210,217.5,217.5,547.5,,
5,Davis Hamilton,M,SBD,MR-T3,100,Raw,2003,Kennesaw Barbell,GA,99.3,165,180,-187.5,180,120,-130,132.5,132.5,210,220,227.5,227.5,540,,
6,Ashton Meador,M,SBD,MR-T3,100,Raw,2003,,GA,96.35,172.5,-185,195,195,120,127.5,-137.5,127.5,175,187.5,197.5,197.5,520,,
7,Caleb Robinson,M,SBD,MR-T3,100,Raw,2004,Georgia State University Barbell Club,GA,98,160,172.5,-177.5,172.5,105,115,-125,115,205,220,-235,220,507.5,,
1,Issac Estrada,M,SBD,MR-T3,125,Raw,2003,TruBorn Strong,GA,119,-140,150,-165,150,85,97.5,-107.5,97.5,205,225,245,245,492.5,,
1,Joshua Canlas,M,SBD,MR-T3,67.5,Raw,2004,Georgia Tech Barbell Club,GA,63.7,137.5,145,150,150,90,97.5,102.5,102.5,-165,177.5,185,185,437.5,,
2,Mohan Nellutla,M,SBD,MR-T3,67.5,Raw,2004,Georgia State University Barbell Club,GA,67,120,130,-135,130,82.5,87.5,-92.5,87.5,150,160,165,165,382.5,,
1,Jacob Hickman,M,SBD,MR-T3,82.5,Raw,2003,Eagle Power,GA,80.15,210,225,-235,225,150,-157.5,-157.5,150,230,247.5,-265,247.5,622.5,,
2,Erick Severino,M,SBD,MR-T3,82.5,Raw,2003,,GA,81.35,210,220,227.5,227.5,110,115,-122.5,115,217.5,227.5,237.5,237.5,580,,
3,Reid Kanemasu,M,SBD,MR-T3,82.5,Raw,2004,,GA,80.6,215,222.5,230,230,90,95,-100,95,225,237.5,242.5,242.5,567.5,,
4,CJ Walker,M,SBD,MR-T3,82.5,Raw,2003,Kennesaw Barbell,GA,81.6,187.5,200,-207.5,200,105,-112.5,112.5,112.5,220,237.5,-250,237.5,550,,
5,Michael Gannon,M,SBD,MR-T3,82.5,Raw,2004,,GA,80.25,185,197.5,205,205,110,120,-125,120,205,215,222.5,222.5,547.5,,
6,Jackson Millwood,M,SBD,MR-T3,82.5,Raw,2004,,GA,79.4,-185,190,-200,190,102.5,-110,-110,102.5,232.5,245,-252.5,245,537.5,,
7,Dylan Brady,M,SBD,MR-T3,82.5,Raw,2004,TruBorn Strong,GA,81.7,187.5,195,-205,195,95,-97.5,-97.5,95,210,-222.5,225,225,515,,
8,Spencer Hutchens,M,SBD,MR-T3,82.5,Raw,2003,Eagle Power,GA,76.84,-162.5,172.5,-182.5,172.5,105,107.5,-115,107.5,202.5,217.5,-232.5,217.5,497.5,,
9,Sahil Khan,M,SBD,MR-T3,82.5,Raw,2003,,GA,77.8,145,-157.5,157.5,157.5,-102.5,-107.5,107.5,107.5,165,180,190,190,455,,
1,Dominic Zayas,M,SBD,MR-Y2,30,Raw,2012,Elite Iron,GA,27.2,30,-35,-35,30,17.5,20,21,21,45,50,55,55,106,,
1,Joel Woodson,M,SBD,MR-Y3,75,Raw,2009,,GA,71.05,112.5,120,-125,120,70,80,-90,80,112.5,132.5,-142.5,132.5,332.5,,
1,Atreyu Vest,M,SBD,MR-Y3,125,Raw,2009,Elite Iron,GA,116.75,147.5,162.5,170,170,107.5,-115.5,-115.5,107.5,167.5,177.5,-190.5,177.5,455,,
1,Marissa Weidner,F,BD,FR-O,67.5,Raw,1995,Elite Iron,GA,67.45,,,,,97.5,102.5,-110,102.5,160,165,-172.5,165,267.5,,
1,Arden Bunch,M,BD,MR-T2,100,Raw,2006,,GA,96.9,,,,,97.5,102.5,105,105,180,200,205,205,310,,
1,Jake Brown,M,BD,MR-T3,82.5,Raw,2003,Eagle Power,GA,79.2,,,,,115,122.5,130,130,167.5,172.5,177.5,177.5,307.5,,
