Place,Name,Sex,BirthDate,Equipment,Division,BodyweightKg,WeightClassKg,Squat1Kg,Squat2Kg,Squat3Kg,Best3SquatKg,Bench1Kg,Bench2Kg,Bench3Kg,Best3BenchKg,Deadlift1Kg,Deadlift2Kg,Deadlift3Kg,Best3DeadliftKg,TotalKg,Event
1,Renee Laffitte,F,1977-03-30,Raw,F_MR_2_APF,84.14,90,97.52,102.06,111.13,111.13,77.11,79.38,81.65,81.65,170.1,181.44,-185.97,181.44,374.21,SBD
1,Renee Laffitte,F,1977-03-30,Raw,F_OR_APF,84.14,90,97.52,102.06,111.13,111.13,77.11,79.38,81.65,81.65,170.1,181.44,-185.97,181.44,374.21,SBD
2,Melissa Kiel,F,1989-01-11,Raw,F_OR_APF,89.13,90,92.99,97.52,102.06,102.06,-54.43,61.23,68.04,68.04,111.13,133.81,142.88,142.88,312.98,SBD
1,Abigail Schmutte-Leal,F,1992-06-02,Raw,F_OR_APF,99.79,100,108.86,113.4,117.93,117.93,54.43,58.97,61.23,61.23,138.35,145.15,149.69,149.69,328.85,SBD
1,Tara Albarran,F,1988-09-05,Raw,F_SR_APF,78.02,82.5,97.52,102.06,104.33,104.33,-47.63,52.16,56.7,56.7,108.86,113.4,120.2,120.2,281.23,SBD
1,Meghan Farris,F,1986-07-16,Raw,F_SR_APF,109.54,110,-92.99,92.99,-104.33,92.99,52.16,56.7,-61.23,56.7,106.59,113.4,124.74,124.74,274.42,SBD
2,Charles Heller,M,1985-12-24,Raw,M_OR_APF,87.54,90,-195.04,195.04,-204.12,195.04,185.97,-206.38,-206.38,185.97,226.8,244.94,-449.06,244.94,625.96,SBD
4,Dylan Didier,M,1991-06-07,Raw,M_OR_APF,86.64,90,183.7,199.58,-215.46,199.58,138.35,149.69,-158.76,149.69,238.14,249.48,-265.35,249.48,598.74,SBD
1,Jonah Fonner,M,2008-07-17,Raw,M_TR_1_APF,75.07,82.5,-113.4,113.4,117.93,117.93,79.38,83.91,90.72,90.72,122.47,127.01,136.08,136.08,344.73,SBD
2,Ethan Pickens,M,2003-12-03,Raw,M_OR_APF,97.3,100,-188.24,204.12,-208.65,204.12,111.13,124.74,-129.27,124.74,192.78,204.12,215.46,215.46,544.31,SBD
3,Dawson Land,M,2004-01-23,Raw,M_OR_APF,96.39,100,170.1,181.44,190.51,190.51,111.13,120.2,-122.47,120.2,192.78,213.19,226.8,226.8,537.51,SBD
1,Shad Matthew Akers Jr,M,2003-09-24,Raw,M_OR_APF,139.48,140,181.44,195.04,-208.65,195.04,127.01,136.08,-142.88,136.08,165.56,181.44,192.78,192.78,523.9,SBD
1,Keybeck Song,M,1982-08-31,Raw,M_MR_1_APF,89.13,90,172.37,181.44,183.7,183.7,117.93,124.74,-127.01,124.74,201.85,-210.92,210.92,210.92,519.36,SBD
1,Jamar Brown,M,1982-11-15,Raw,M_MR_1_APF,105.23,110,-176.9,183.7,188.24,188.24,129.27,138.35,142.88,142.88,199.58,213.19,-226.8,213.19,544.31,SBD
1,Tavis Polk,M,1971-01-23,Raw,M_MR_3_APF,143.79,140+,136.08,149.69,-170.1,149.69,145.15,-167.83,-167.83,145.15,165.56,183.7,-199.58,183.7,478.54,SBD
1,Nic Fonner,M,1983-09-25,Raw,M_OR_APF,89.36,90,215.46,222.26,-229.06,222.26,176.9,181.44,188.24,188.24,224.53,233.6,242.67,242.67,653.17,SBD
3,Nathan Ballard,M,1992-02-09,Wraps,M_OCR_APF,86.86,90,-217.72,231.33,-240.4,231.33,127.01,138.35,145.15,145.15,217.72,-231.33,242.67,242.67,619.15,SBD
1,Justin Snyder,M,2003-01-06,Raw,M_OR_APF,98.43,100,185.97,195.04,208.65,208.65,131.54,142.88,149.69,149.69,201.85,217.72,226.8,226.8,585.13,SBD
4,Dawson Land,M,2004-01-23,Raw,M_OR_APF,96.39,100,170.1,181.44,190.51,190.51,111.13,120.2,-122.47,120.2,192.78,213.19,226.8,226.8,537.51,SBD
1,Joe Brandt,M,1993-05-25,Raw,M_OR_APF,109.32,110,254.01,283.5,-306.17,283.5,170.1,185.97,-199.58,185.97,-256.28,274.42,290.3,290.3,759.77,SBD
2,Owen Raye,M,2002-09-12,Raw,M_OR_APF,107.05,110,201.85,217.72,-229.06,217.72,149.69,158.76,-170.1,158.76,244.94,263.08,272.16,272.16,648.64,SBD
1,Devin Deboy,M,2005-09-18,Raw,M_OR_APF,120.66,125,-206.38,222.26,-226.8,222.26,108.86,117.93,-124.74,117.93,215.46,229.06,-238.14,229.06,569.26,SBD
2,Shad Matthew Akers Jr,M,2003-09-24,Raw,M_OR_APF,139.48,140,181.44,195.04,-208.65,195.04,127.01,136.08,-142.88,136.08,165.56,181.44,192.78,192.78,523.9,SBD
1,Johnny Torres,M,1983-11-27,Raw,M_SR_APF,84.82,90,145.15,151.95,-158.76,151.95,104.33,108.86,113.4,113.4,-167.83,167.83,176.9,176.9,442.25,SBD
1,Mason Gibson,M,2005-11-19,Raw,M_TR_2_APF,72.12,75,113.4,129.27,133.81,133.81,77.11,86.18,92.99,92.99,174.63,188.24,199.58,199.58,426.38,SBD
1,Devin Deboy,M,2005-09-18,Raw,M_TR_3_APF,120.66,125,-206.38,222.26,-226.8,222.26,108.86,117.93,-124.74,117.93,215.46,229.06,-238.14,229.06,569.26,SBD
1,Nick Avramaut,M,1987-05-01,Single-ply,M_SES_APF,119.07,125,-324.32,-324.32,324.32,324.32,170.1,174.63,181.44,181.44,-247.21,247.21,256.28,256.28,762.04,SBD
1,Ken Ebel,M,1987-06-26,Multi-ply,M_OEM_APF,107.5,110,272.16,317.51,335.66,335.66,181.44,204.12,215.46,215.46,226.8,-265.35,265.35,265.35,816.47,SBD
